<mxfile host="Electron" modified="2023-06-25T16:44:28.482Z" agent="Mozilla/5.0 (Windows NT 10.0; Win64; x64) AppleWebKit/537.36 (KHTML, like Gecko) draw.io/21.5.0 Chrome/112.0.5615.204 Electron/24.5.1 Safari/537.36" etag="2F2-Vc9aZATUZI1wuK0N" version="21.5.0" type="device" pages="3">
  <diagram name="DataBases" id="NKy95oUv8v1f-hQ3Tyd8">
    <mxGraphModel dx="1016" dy="598" grid="1" gridSize="10" guides="1" tooltips="1" connect="1" arrows="1" fold="1" page="1" pageScale="1" pageWidth="850" pageHeight="1100" math="0" shadow="0">
      <root>
        <mxCell id="0" />
        <mxCell id="1" parent="0" />
        <mxCell id="eduDpRzSXxiXhLQAyfoz-1" value="&lt;div style=&quot;font-family: Consolas, &amp;quot;Courier New&amp;quot;, monospace; font-weight: normal; font-size: 14px; line-height: 19px;&quot;&gt;&lt;font style=&quot;&quot; color=&quot;#ffffff&quot;&gt;Tasks&lt;/font&gt;&lt;/div&gt;" style="shape=table;startSize=30;container=1;collapsible=1;childLayout=tableLayout;fixedRows=1;rowLines=0;fontStyle=1;align=center;resizeLast=1;html=1;fillColor=#f0a30a;fontColor=#000000;strokeColor=#BD7000;" parent="1" vertex="1">
          <mxGeometry x="260" y="440" width="180" height="90" as="geometry" />
        </mxCell>
        <mxCell id="eduDpRzSXxiXhLQAyfoz-2" value="" style="shape=tableRow;horizontal=0;startSize=0;swimlaneHead=0;swimlaneBody=0;fillColor=none;collapsible=0;dropTarget=0;points=[[0,0.5],[1,0.5]];portConstraint=eastwest;top=0;left=0;right=0;bottom=1;" parent="eduDpRzSXxiXhLQAyfoz-1" vertex="1">
          <mxGeometry y="30" width="180" height="30" as="geometry" />
        </mxCell>
        <mxCell id="eduDpRzSXxiXhLQAyfoz-3" value="PK" style="shape=partialRectangle;connectable=0;fillColor=none;top=0;left=0;bottom=0;right=0;fontStyle=1;overflow=hidden;whiteSpace=wrap;html=1;" parent="eduDpRzSXxiXhLQAyfoz-2" vertex="1">
          <mxGeometry width="30" height="30" as="geometry">
            <mxRectangle width="30" height="30" as="alternateBounds" />
          </mxGeometry>
        </mxCell>
        <mxCell id="eduDpRzSXxiXhLQAyfoz-4" value="UniqueID" style="shape=partialRectangle;connectable=0;fillColor=none;top=0;left=0;bottom=0;right=0;align=left;spacingLeft=6;fontStyle=5;overflow=hidden;whiteSpace=wrap;html=1;" parent="eduDpRzSXxiXhLQAyfoz-2" vertex="1">
          <mxGeometry x="30" width="150" height="30" as="geometry">
            <mxRectangle width="150" height="30" as="alternateBounds" />
          </mxGeometry>
        </mxCell>
        <mxCell id="eduDpRzSXxiXhLQAyfoz-5" value="" style="shape=tableRow;horizontal=0;startSize=0;swimlaneHead=0;swimlaneBody=0;fillColor=none;collapsible=0;dropTarget=0;points=[[0,0.5],[1,0.5]];portConstraint=eastwest;top=0;left=0;right=0;bottom=0;" parent="eduDpRzSXxiXhLQAyfoz-1" vertex="1">
          <mxGeometry y="60" width="180" height="30" as="geometry" />
        </mxCell>
        <mxCell id="eduDpRzSXxiXhLQAyfoz-6" value="" style="shape=partialRectangle;connectable=0;fillColor=none;top=0;left=0;bottom=0;right=0;editable=1;overflow=hidden;whiteSpace=wrap;html=1;" parent="eduDpRzSXxiXhLQAyfoz-5" vertex="1">
          <mxGeometry width="30" height="30" as="geometry">
            <mxRectangle width="30" height="30" as="alternateBounds" />
          </mxGeometry>
        </mxCell>
        <mxCell id="eduDpRzSXxiXhLQAyfoz-7" value="Id_Area" style="shape=partialRectangle;connectable=0;fillColor=none;top=0;left=0;bottom=0;right=0;align=left;spacingLeft=6;overflow=hidden;whiteSpace=wrap;html=1;" parent="eduDpRzSXxiXhLQAyfoz-5" vertex="1">
          <mxGeometry x="30" width="150" height="30" as="geometry">
            <mxRectangle width="150" height="30" as="alternateBounds" />
          </mxGeometry>
        </mxCell>
        <mxCell id="eduDpRzSXxiXhLQAyfoz-14" value="Areas" style="shape=table;startSize=30;container=1;collapsible=1;childLayout=tableLayout;fixedRows=1;rowLines=0;fontStyle=1;align=center;resizeLast=1;html=1;" parent="1" vertex="1">
          <mxGeometry x="600" y="160" width="180" height="150" as="geometry" />
        </mxCell>
        <mxCell id="eduDpRzSXxiXhLQAyfoz-15" value="" style="shape=tableRow;horizontal=0;startSize=0;swimlaneHead=0;swimlaneBody=0;fillColor=none;collapsible=0;dropTarget=0;points=[[0,0.5],[1,0.5]];portConstraint=eastwest;top=0;left=0;right=0;bottom=1;" parent="eduDpRzSXxiXhLQAyfoz-14" vertex="1">
          <mxGeometry y="30" width="180" height="30" as="geometry" />
        </mxCell>
        <mxCell id="eduDpRzSXxiXhLQAyfoz-16" value="PK" style="shape=partialRectangle;connectable=0;fillColor=none;top=0;left=0;bottom=0;right=0;fontStyle=1;overflow=hidden;whiteSpace=wrap;html=1;" parent="eduDpRzSXxiXhLQAyfoz-15" vertex="1">
          <mxGeometry width="30" height="30" as="geometry">
            <mxRectangle width="30" height="30" as="alternateBounds" />
          </mxGeometry>
        </mxCell>
        <mxCell id="eduDpRzSXxiXhLQAyfoz-17" value="UniqueID" style="shape=partialRectangle;connectable=0;fillColor=none;top=0;left=0;bottom=0;right=0;align=left;spacingLeft=6;fontStyle=5;overflow=hidden;whiteSpace=wrap;html=1;" parent="eduDpRzSXxiXhLQAyfoz-15" vertex="1">
          <mxGeometry x="30" width="150" height="30" as="geometry">
            <mxRectangle width="150" height="30" as="alternateBounds" />
          </mxGeometry>
        </mxCell>
        <mxCell id="eduDpRzSXxiXhLQAyfoz-18" value="" style="shape=tableRow;horizontal=0;startSize=0;swimlaneHead=0;swimlaneBody=0;fillColor=none;collapsible=0;dropTarget=0;points=[[0,0.5],[1,0.5]];portConstraint=eastwest;top=0;left=0;right=0;bottom=0;" parent="eduDpRzSXxiXhLQAyfoz-14" vertex="1">
          <mxGeometry y="60" width="180" height="30" as="geometry" />
        </mxCell>
        <mxCell id="eduDpRzSXxiXhLQAyfoz-19" value="" style="shape=partialRectangle;connectable=0;fillColor=none;top=0;left=0;bottom=0;right=0;editable=1;overflow=hidden;whiteSpace=wrap;html=1;" parent="eduDpRzSXxiXhLQAyfoz-18" vertex="1">
          <mxGeometry width="30" height="30" as="geometry">
            <mxRectangle width="30" height="30" as="alternateBounds" />
          </mxGeometry>
        </mxCell>
        <mxCell id="eduDpRzSXxiXhLQAyfoz-20" value="AreaName" style="shape=partialRectangle;connectable=0;fillColor=none;top=0;left=0;bottom=0;right=0;align=left;spacingLeft=6;overflow=hidden;whiteSpace=wrap;html=1;" parent="eduDpRzSXxiXhLQAyfoz-18" vertex="1">
          <mxGeometry x="30" width="150" height="30" as="geometry">
            <mxRectangle width="150" height="30" as="alternateBounds" />
          </mxGeometry>
        </mxCell>
        <mxCell id="eduDpRzSXxiXhLQAyfoz-21" value="" style="shape=tableRow;horizontal=0;startSize=0;swimlaneHead=0;swimlaneBody=0;fillColor=none;collapsible=0;dropTarget=0;points=[[0,0.5],[1,0.5]];portConstraint=eastwest;top=0;left=0;right=0;bottom=0;" parent="eduDpRzSXxiXhLQAyfoz-14" vertex="1">
          <mxGeometry y="90" width="180" height="30" as="geometry" />
        </mxCell>
        <mxCell id="eduDpRzSXxiXhLQAyfoz-22" value="" style="shape=partialRectangle;connectable=0;fillColor=none;top=0;left=0;bottom=0;right=0;editable=1;overflow=hidden;whiteSpace=wrap;html=1;" parent="eduDpRzSXxiXhLQAyfoz-21" vertex="1">
          <mxGeometry width="30" height="30" as="geometry">
            <mxRectangle width="30" height="30" as="alternateBounds" />
          </mxGeometry>
        </mxCell>
        <mxCell id="eduDpRzSXxiXhLQAyfoz-23" value="CreationDate" style="shape=partialRectangle;connectable=0;fillColor=none;top=0;left=0;bottom=0;right=0;align=left;spacingLeft=6;overflow=hidden;whiteSpace=wrap;html=1;" parent="eduDpRzSXxiXhLQAyfoz-21" vertex="1">
          <mxGeometry x="30" width="150" height="30" as="geometry">
            <mxRectangle width="150" height="30" as="alternateBounds" />
          </mxGeometry>
        </mxCell>
        <mxCell id="eduDpRzSXxiXhLQAyfoz-24" value="" style="shape=tableRow;horizontal=0;startSize=0;swimlaneHead=0;swimlaneBody=0;fillColor=none;collapsible=0;dropTarget=0;points=[[0,0.5],[1,0.5]];portConstraint=eastwest;top=0;left=0;right=0;bottom=0;" parent="eduDpRzSXxiXhLQAyfoz-14" vertex="1">
          <mxGeometry y="120" width="180" height="30" as="geometry" />
        </mxCell>
        <mxCell id="eduDpRzSXxiXhLQAyfoz-25" value="" style="shape=partialRectangle;connectable=0;fillColor=none;top=0;left=0;bottom=0;right=0;editable=1;overflow=hidden;whiteSpace=wrap;html=1;" parent="eduDpRzSXxiXhLQAyfoz-24" vertex="1">
          <mxGeometry width="30" height="30" as="geometry">
            <mxRectangle width="30" height="30" as="alternateBounds" />
          </mxGeometry>
        </mxCell>
        <mxCell id="eduDpRzSXxiXhLQAyfoz-26" value="Row 3" style="shape=partialRectangle;connectable=0;fillColor=none;top=0;left=0;bottom=0;right=0;align=left;spacingLeft=6;overflow=hidden;whiteSpace=wrap;html=1;" parent="eduDpRzSXxiXhLQAyfoz-24" vertex="1">
          <mxGeometry x="30" width="150" height="30" as="geometry">
            <mxRectangle width="150" height="30" as="alternateBounds" />
          </mxGeometry>
        </mxCell>
        <mxCell id="0Mn5PVFuPCq4Peufx8s7-2" value="" style="endArrow=classic;html=1;rounded=0;exitX=1;exitY=0.5;exitDx=0;exitDy=0;entryX=0;entryY=0.5;entryDx=0;entryDy=0;" parent="1" source="eduDpRzSXxiXhLQAyfoz-5" target="eduDpRzSXxiXhLQAyfoz-15" edge="1">
          <mxGeometry width="50" height="50" relative="1" as="geometry">
            <mxPoint x="540" y="510" as="sourcePoint" />
            <mxPoint x="590" y="460" as="targetPoint" />
            <Array as="points">
              <mxPoint x="540" y="520" />
              <mxPoint x="480" y="210" />
            </Array>
          </mxGeometry>
        </mxCell>
        <mxCell id="0Mn5PVFuPCq4Peufx8s7-3" value="Al crear un área, la app te debe permitir qué parámetros colocar" style="rounded=0;whiteSpace=wrap;html=1;fillColor=#76608a;fontColor=#ffffff;strokeColor=#432D57;" parent="1" vertex="1">
          <mxGeometry x="820" y="80" width="220" height="60" as="geometry" />
        </mxCell>
      </root>
    </mxGraphModel>
  </diagram>
  <diagram id="hbGo8M5eY3hRe3-agag9" name="Acciones">
    <mxGraphModel dx="864" dy="508" grid="1" gridSize="10" guides="1" tooltips="1" connect="1" arrows="1" fold="1" page="1" pageScale="1" pageWidth="850" pageHeight="1100" math="0" shadow="0">
      <root>
        <mxCell id="0" />
        <mxCell id="1" parent="0" />
        <mxCell id="R9rKj-l6R324m9j1-Arc-1" value="&lt;b&gt;Create Area&lt;/b&gt;" style="triangle;whiteSpace=wrap;html=1;align=left;fillColor=#fa6800;fontColor=#000000;strokeColor=#C73500;" parent="1" vertex="1">
          <mxGeometry x="40" width="120" height="110" as="geometry" />
        </mxCell>
        <mxCell id="R9rKj-l6R324m9j1-Arc-5" value="Show new Windows" style="ellipse;shape=cloud;whiteSpace=wrap;html=1;fillColor=#6d8764;fontColor=#ffffff;strokeColor=#3A5431;" parent="1" vertex="1">
          <mxGeometry x="180" y="60" width="180" height="70" as="geometry" />
        </mxCell>
        <mxCell id="R9rKj-l6R324m9j1-Arc-7" value="" style="endArrow=classic;html=1;rounded=0;entryX=0.4;entryY=0.1;entryDx=0;entryDy=0;entryPerimeter=0;exitX=1;exitY=0.5;exitDx=0;exitDy=0;" parent="1" source="R9rKj-l6R324m9j1-Arc-1" target="R9rKj-l6R324m9j1-Arc-5" edge="1">
          <mxGeometry width="50" height="50" relative="1" as="geometry">
            <mxPoint x="230" y="60" as="sourcePoint" />
            <mxPoint x="280" y="10" as="targetPoint" />
            <Array as="points">
              <mxPoint x="240" y="40" />
            </Array>
          </mxGeometry>
        </mxCell>
      </root>
    </mxGraphModel>
  </diagram>
  <diagram id="9hNnzeDyW5owclUUelCa" name="APIS">
    <mxGraphModel dx="1329" dy="782" grid="1" gridSize="10" guides="1" tooltips="1" connect="1" arrows="1" fold="1" page="1" pageScale="1" pageWidth="850" pageHeight="1100" math="0" shadow="0">
      <root>
        <mxCell id="0" />
        <mxCell id="1" parent="0" />
        <mxCell id="yPtQLD9C36bfNlVtRMow-1" value="Remote Web MySQL DB Server" style="image;aspect=fixed;perimeter=ellipsePerimeter;html=1;align=center;shadow=0;dashed=0;spacingTop=3;image=img/lib/active_directory/web_server.svg;" vertex="1" parent="1">
          <mxGeometry x="140" y="440" width="70" height="87.5" as="geometry" />
        </mxCell>
        <mxCell id="yPtQLD9C36bfNlVtRMow-40" style="edgeStyle=orthogonalEdgeStyle;rounded=0;orthogonalLoop=1;jettySize=auto;html=1;entryX=0;entryY=0.5;entryDx=0;entryDy=0;fillColor=#1ba1e2;strokeColor=#006EAF;" edge="1" parent="1" source="yPtQLD9C36bfNlVtRMow-2" target="yPtQLD9C36bfNlVtRMow-38">
          <mxGeometry relative="1" as="geometry" />
        </mxCell>
        <mxCell id="yPtQLD9C36bfNlVtRMow-47" style="edgeStyle=orthogonalEdgeStyle;rounded=0;orthogonalLoop=1;jettySize=auto;html=1;entryX=0;entryY=0.5;entryDx=0;entryDy=0;fillColor=#1ba1e2;strokeColor=#006EAF;" edge="1" parent="1" source="yPtQLD9C36bfNlVtRMow-2" target="yPtQLD9C36bfNlVtRMow-46">
          <mxGeometry relative="1" as="geometry" />
        </mxCell>
        <mxCell id="yPtQLD9C36bfNlVtRMow-2" value="Web API" style="outlineConnect=0;dashed=0;verticalLabelPosition=bottom;verticalAlign=top;align=center;html=1;shape=mxgraph.aws3.worker;fillColor=#1ba1e2;fontColor=#ffffff;strokeColor=#006EAF;" vertex="1" parent="1">
          <mxGeometry x="530" y="500" width="60" height="63" as="geometry" />
        </mxCell>
        <mxCell id="yPtQLD9C36bfNlVtRMow-3" value="&lt;font face=&quot;Times New Roman&quot; style=&quot;font-size: 32px;&quot;&gt;&lt;b&gt;Web and Remote App Sincronization&lt;/b&gt;&lt;/font&gt;" style="text;html=1;align=center;verticalAlign=middle;resizable=0;points=[];autosize=1;strokeColor=none;fillColor=none;" vertex="1" parent="1">
          <mxGeometry x="170" y="18" width="530" height="50" as="geometry" />
        </mxCell>
        <mxCell id="yPtQLD9C36bfNlVtRMow-4" value="&lt;font style=&quot;font-size: 18px;&quot; face=&quot;Times New Roman&quot; color=&quot;#ffffff&quot;&gt;User Desktop App&lt;/font&gt;" style="sketch=0;outlineConnect=0;fontColor=#ffffff;strokeColor=#6F0000;fillColor=#a20025;dashed=0;verticalLabelPosition=bottom;verticalAlign=top;align=center;html=1;fontSize=12;fontStyle=0;aspect=fixed;shape=mxgraph.aws4.illustration_desktop;pointerEvents=1;" vertex="1" parent="1">
          <mxGeometry x="40" y="130" width="120.88" height="110" as="geometry" />
        </mxCell>
        <mxCell id="yPtQLD9C36bfNlVtRMow-5" value="" style="shape=mxgraph.lean_mapping.electronic_info_flow_edge;html=1;rounded=0;fillColor=#f0a30a;strokeColor=#BD7000;strokeWidth=2;exitX=0.986;exitY=0.458;exitDx=0;exitDy=0;exitPerimeter=0;entryX=0;entryY=0.5;entryDx=0;entryDy=0;" edge="1" parent="1" source="yPtQLD9C36bfNlVtRMow-4" target="yPtQLD9C36bfNlVtRMow-9">
          <mxGeometry width="100" height="100" relative="1" as="geometry">
            <mxPoint x="160.88" y="170" as="sourcePoint" />
            <mxPoint x="460" y="170" as="targetPoint" />
            <Array as="points">
              <mxPoint x="310.88" y="150" />
            </Array>
          </mxGeometry>
        </mxCell>
        <mxCell id="yPtQLD9C36bfNlVtRMow-7" value="&lt;font color=&quot;#ff8000&quot;&gt;Sincronization Event&lt;/font&gt;" style="edgeLabel;html=1;align=center;verticalAlign=middle;resizable=0;points=[];" vertex="1" connectable="0" parent="yPtQLD9C36bfNlVtRMow-5">
          <mxGeometry x="-0.4153" y="3" relative="1" as="geometry">
            <mxPoint as="offset" />
          </mxGeometry>
        </mxCell>
        <mxCell id="yPtQLD9C36bfNlVtRMow-17" style="edgeStyle=orthogonalEdgeStyle;rounded=0;orthogonalLoop=1;jettySize=auto;html=1;entryX=0;entryY=0.5;entryDx=0;entryDy=0;fillColor=#f0a30a;strokeColor=#BD7000;" edge="1" parent="1" source="yPtQLD9C36bfNlVtRMow-8" target="yPtQLD9C36bfNlVtRMow-15">
          <mxGeometry relative="1" as="geometry" />
        </mxCell>
        <mxCell id="yPtQLD9C36bfNlVtRMow-8" value="Local API" style="outlineConnect=0;dashed=0;verticalLabelPosition=bottom;verticalAlign=top;align=center;html=1;shape=mxgraph.aws3.worker;fillColor=#a20025;fontColor=#ffffff;strokeColor=#6F0000;" vertex="1" parent="1">
          <mxGeometry x="670" y="277" width="60" height="63" as="geometry" />
        </mxCell>
        <mxCell id="yPtQLD9C36bfNlVtRMow-9" value="User Question" style="rhombus;whiteSpace=wrap;html=1;fillColor=#f0a30a;fontColor=#000000;strokeColor=#BD7000;" vertex="1" parent="1">
          <mxGeometry x="460" y="120" width="130" height="100" as="geometry" />
        </mxCell>
        <mxCell id="yPtQLD9C36bfNlVtRMow-10" value="do you want to upload local info or do you want to downlaod remote info." style="rounded=0;whiteSpace=wrap;html=1;fillColor=#76608a;fontColor=#ffffff;strokeColor=#432D57;" vertex="1" parent="1">
          <mxGeometry x="640" y="140" width="150" height="60" as="geometry" />
        </mxCell>
        <mxCell id="yPtQLD9C36bfNlVtRMow-11" value="" style="endArrow=none;dashed=1;html=1;dashPattern=1 3;strokeWidth=2;rounded=0;entryX=0;entryY=0.5;entryDx=0;entryDy=0;exitX=1;exitY=0.5;exitDx=0;exitDy=0;" edge="1" parent="1" source="yPtQLD9C36bfNlVtRMow-9" target="yPtQLD9C36bfNlVtRMow-10">
          <mxGeometry width="50" height="50" relative="1" as="geometry">
            <mxPoint x="560" y="290" as="sourcePoint" />
            <mxPoint x="610" y="240" as="targetPoint" />
          </mxGeometry>
        </mxCell>
        <mxCell id="yPtQLD9C36bfNlVtRMow-12" value="" style="endArrow=classic;html=1;rounded=0;entryX=0.5;entryY=0;entryDx=0;entryDy=0;entryPerimeter=0;exitX=1;exitY=1;exitDx=0;exitDy=0;fillColor=#f0a30a;strokeColor=#BD7000;" edge="1" parent="1" source="yPtQLD9C36bfNlVtRMow-9" target="yPtQLD9C36bfNlVtRMow-8">
          <mxGeometry width="50" height="50" relative="1" as="geometry">
            <mxPoint x="480" y="280" as="sourcePoint" />
            <mxPoint x="530" y="230" as="targetPoint" />
            <Array as="points">
              <mxPoint x="620" y="220" />
              <mxPoint x="700" y="220" />
            </Array>
          </mxGeometry>
        </mxCell>
        <mxCell id="yPtQLD9C36bfNlVtRMow-13" value="" style="image;aspect=fixed;perimeter=ellipsePerimeter;html=1;align=center;shadow=0;dashed=0;spacingTop=3;image=img/lib/active_directory/database_server.svg;" vertex="1" parent="1">
          <mxGeometry x="194.5" y="210" width="41" height="50" as="geometry" />
        </mxCell>
        <mxCell id="yPtQLD9C36bfNlVtRMow-19" style="edgeStyle=orthogonalEdgeStyle;rounded=0;orthogonalLoop=1;jettySize=auto;html=1;entryX=1;entryY=0.5;entryDx=0;entryDy=0;fillColor=#f0a30a;strokeColor=#BD7000;" edge="1" parent="1" source="yPtQLD9C36bfNlVtRMow-15" target="yPtQLD9C36bfNlVtRMow-18">
          <mxGeometry relative="1" as="geometry" />
        </mxCell>
        <mxCell id="yPtQLD9C36bfNlVtRMow-15" value="&lt;font face=&quot;Times New Roman&quot;&gt;Upload&lt;/font&gt;" style="triangle;whiteSpace=wrap;html=1;direction=west;fillColor=#6a00ff;fontColor=#ffffff;strokeColor=#3700CC;" vertex="1" parent="1">
          <mxGeometry x="460" y="240" width="100" height="80" as="geometry" />
        </mxCell>
        <mxCell id="yPtQLD9C36bfNlVtRMow-20" style="edgeStyle=orthogonalEdgeStyle;rounded=0;orthogonalLoop=1;jettySize=auto;html=1;entryX=1;entryY=0.5;entryDx=0;entryDy=0;fillColor=#f0a30a;strokeColor=#BD7000;" edge="1" parent="1" source="yPtQLD9C36bfNlVtRMow-18" target="yPtQLD9C36bfNlVtRMow-13">
          <mxGeometry relative="1" as="geometry" />
        </mxCell>
        <mxCell id="yPtQLD9C36bfNlVtRMow-18" value="Let me Json with all entities info." style="rounded=0;whiteSpace=wrap;html=1;fillColor=#60a917;fontColor=#ffffff;strokeColor=#2D7600;" vertex="1" parent="1">
          <mxGeometry x="300" y="215" width="120" height="40" as="geometry" />
        </mxCell>
        <mxCell id="yPtQLD9C36bfNlVtRMow-21" value="" style="dashed=0;outlineConnect=0;html=1;align=center;labelPosition=center;verticalLabelPosition=bottom;verticalAlign=top;shape=mxgraph.weblogos.json_2" vertex="1" parent="1">
          <mxGeometry x="460" y="330" width="80.4" height="25.200000000000003" as="geometry" />
        </mxCell>
        <mxCell id="yPtQLD9C36bfNlVtRMow-22" value="" style="endArrow=classic;html=1;rounded=0;entryX=0.013;entryY=0.578;entryDx=0;entryDy=0;entryPerimeter=0;exitX=0.5;exitY=1;exitDx=0;exitDy=0;fillColor=#e51400;strokeColor=#B20000;" edge="1" parent="1" source="yPtQLD9C36bfNlVtRMow-13" target="yPtQLD9C36bfNlVtRMow-21">
          <mxGeometry width="50" height="50" relative="1" as="geometry">
            <mxPoint x="230" y="330" as="sourcePoint" />
            <mxPoint x="280" y="280" as="targetPoint" />
            <Array as="points">
              <mxPoint x="220" y="280" />
              <mxPoint x="290" y="320" />
            </Array>
          </mxGeometry>
        </mxCell>
        <mxCell id="yPtQLD9C36bfNlVtRMow-24" value="" style="endArrow=classic;html=1;rounded=0;entryX=0;entryY=0.841;entryDx=0;entryDy=0;entryPerimeter=0;exitX=0.988;exitY=0.478;exitDx=0;exitDy=0;exitPerimeter=0;fillColor=#e51400;strokeColor=#B20000;" edge="1" parent="1" source="yPtQLD9C36bfNlVtRMow-21" target="yPtQLD9C36bfNlVtRMow-8">
          <mxGeometry width="50" height="50" relative="1" as="geometry">
            <mxPoint x="550" y="390" as="sourcePoint" />
            <mxPoint x="600" y="340" as="targetPoint" />
          </mxGeometry>
        </mxCell>
        <mxCell id="yPtQLD9C36bfNlVtRMow-36" value="" style="endArrow=classic;html=1;rounded=0;exitX=1;exitY=0.5;exitDx=0;exitDy=0;exitPerimeter=0;entryX=0.5;entryY=0;entryDx=0;entryDy=0;entryPerimeter=0;fillColor=#a20025;strokeColor=#6F0000;strokeWidth=3;shadow=0;fontFamily=Times New Roman;" edge="1" parent="1" source="yPtQLD9C36bfNlVtRMow-8" target="yPtQLD9C36bfNlVtRMow-2">
          <mxGeometry width="50" height="50" relative="1" as="geometry">
            <mxPoint x="740" y="320" as="sourcePoint" />
            <mxPoint x="790" y="270" as="targetPoint" />
            <Array as="points">
              <mxPoint x="790" y="320" />
              <mxPoint x="780" y="350" />
              <mxPoint x="730" y="380" />
              <mxPoint x="670" y="380" />
              <mxPoint x="550" y="380" />
            </Array>
          </mxGeometry>
        </mxCell>
        <mxCell id="yPtQLD9C36bfNlVtRMow-39" value="&lt;font face=&quot;Times New Roman&quot; style=&quot;font-size: 20px;&quot;&gt;Push&lt;/font&gt;" style="edgeLabel;html=1;align=center;verticalAlign=middle;resizable=0;points=[];" vertex="1" connectable="0" parent="yPtQLD9C36bfNlVtRMow-36">
          <mxGeometry x="0.121" y="1" relative="1" as="geometry">
            <mxPoint as="offset" />
          </mxGeometry>
        </mxCell>
        <mxCell id="yPtQLD9C36bfNlVtRMow-37" value="&lt;font color=&quot;#000000&quot;&gt;1. Delete all info in all tables.&lt;br&gt;&lt;br&gt;2. Put the new info in all tables.&lt;/font&gt;" style="rounded=0;whiteSpace=wrap;html=1;fillColor=#e1d5e7;strokeColor=#9673a6;" vertex="1" parent="1">
          <mxGeometry x="350" y="550" width="140" height="90" as="geometry" />
        </mxCell>
        <mxCell id="yPtQLD9C36bfNlVtRMow-42" style="edgeStyle=orthogonalEdgeStyle;rounded=0;orthogonalLoop=1;jettySize=auto;html=1;entryX=1;entryY=0;entryDx=0;entryDy=0;fillColor=#1ba1e2;strokeColor=#006EAF;" edge="1" parent="1" source="yPtQLD9C36bfNlVtRMow-38" target="yPtQLD9C36bfNlVtRMow-1">
          <mxGeometry relative="1" as="geometry" />
        </mxCell>
        <mxCell id="yPtQLD9C36bfNlVtRMow-38" value="&lt;font face=&quot;Times New Roman&quot;&gt;Upgrade&lt;/font&gt;" style="triangle;whiteSpace=wrap;html=1;direction=west;fillColor=#6a00ff;fontColor=#ffffff;strokeColor=#3700CC;" vertex="1" parent="1">
          <mxGeometry x="360" y="440" width="100" height="80" as="geometry" />
        </mxCell>
        <mxCell id="yPtQLD9C36bfNlVtRMow-43" value="" style="endArrow=none;dashed=1;html=1;rounded=0;entryX=0.375;entryY=0.162;entryDx=0;entryDy=0;entryPerimeter=0;exitX=0.5;exitY=0;exitDx=0;exitDy=0;" edge="1" parent="1" source="yPtQLD9C36bfNlVtRMow-37" target="yPtQLD9C36bfNlVtRMow-38">
          <mxGeometry width="50" height="50" relative="1" as="geometry">
            <mxPoint x="360" y="550" as="sourcePoint" />
            <mxPoint x="410" y="500" as="targetPoint" />
          </mxGeometry>
        </mxCell>
        <mxCell id="yPtQLD9C36bfNlVtRMow-44" value="" style="endArrow=classic;html=1;rounded=0;exitX=1;exitY=0.5;exitDx=0;exitDy=0;exitPerimeter=0;entryX=1;entryY=0;entryDx=0;entryDy=0;entryPerimeter=0;fillColor=#e51400;strokeColor=#B20000;strokeWidth=3;shadow=0;fontFamily=Times New Roman;" edge="1" parent="1" source="yPtQLD9C36bfNlVtRMow-8" target="yPtQLD9C36bfNlVtRMow-2">
          <mxGeometry width="50" height="50" relative="1" as="geometry">
            <mxPoint x="740" y="319" as="sourcePoint" />
            <mxPoint x="570" y="510" as="targetPoint" />
            <Array as="points">
              <mxPoint x="800" y="330" />
              <mxPoint x="790" y="360" />
              <mxPoint x="760" y="400" />
              <mxPoint x="690" y="430" />
            </Array>
          </mxGeometry>
        </mxCell>
        <mxCell id="yPtQLD9C36bfNlVtRMow-45" value="&lt;font face=&quot;Times New Roman&quot; style=&quot;font-size: 20px;&quot;&gt;Pull&lt;/font&gt;" style="edgeLabel;html=1;align=center;verticalAlign=middle;resizable=0;points=[];" vertex="1" connectable="0" parent="yPtQLD9C36bfNlVtRMow-44">
          <mxGeometry x="0.121" y="1" relative="1" as="geometry">
            <mxPoint as="offset" />
          </mxGeometry>
        </mxCell>
        <mxCell id="yPtQLD9C36bfNlVtRMow-48" style="edgeStyle=orthogonalEdgeStyle;rounded=0;orthogonalLoop=1;jettySize=auto;html=1;entryX=1;entryY=0.5;entryDx=0;entryDy=0;fillColor=#1ba1e2;strokeColor=#006EAF;" edge="1" parent="1" source="yPtQLD9C36bfNlVtRMow-46" target="yPtQLD9C36bfNlVtRMow-1">
          <mxGeometry relative="1" as="geometry" />
        </mxCell>
        <mxCell id="yPtQLD9C36bfNlVtRMow-46" value="&lt;font face=&quot;Times New Roman&quot;&gt;Download&lt;/font&gt;" style="triangle;whiteSpace=wrap;html=1;direction=west;fillColor=#6a00ff;fontColor=#ffffff;strokeColor=#3700CC;" vertex="1" parent="1">
          <mxGeometry x="375" y="660" width="100" height="80" as="geometry" />
        </mxCell>
        <mxCell id="yPtQLD9C36bfNlVtRMow-49" value="" style="dashed=0;outlineConnect=0;html=1;align=center;labelPosition=center;verticalLabelPosition=bottom;verticalAlign=top;shape=mxgraph.weblogos.json_2" vertex="1" parent="1">
          <mxGeometry x="369.8" y="770" width="80.4" height="25.200000000000003" as="geometry" />
        </mxCell>
        <mxCell id="yPtQLD9C36bfNlVtRMow-50" value="" style="endArrow=classic;html=1;rounded=0;entryX=0.028;entryY=0.512;entryDx=0;entryDy=0;entryPerimeter=0;fillColor=#1ba1e2;strokeColor=#006EAF;exitX=0;exitY=0.5;exitDx=0;exitDy=0;" edge="1" parent="1" source="yPtQLD9C36bfNlVtRMow-1" target="yPtQLD9C36bfNlVtRMow-49">
          <mxGeometry width="50" height="50" relative="1" as="geometry">
            <mxPoint x="160" y="790" as="sourcePoint" />
            <mxPoint x="210" y="740" as="targetPoint" />
            <Array as="points">
              <mxPoint x="80" y="480" />
              <mxPoint x="80" y="590" />
              <mxPoint x="240" y="580" />
              <mxPoint x="240" y="700" />
              <mxPoint x="260" y="783" />
            </Array>
          </mxGeometry>
        </mxCell>
        <mxCell id="yPtQLD9C36bfNlVtRMow-51" value="" style="endArrow=classic;html=1;rounded=0;exitX=0.984;exitY=0.428;exitDx=0;exitDy=0;exitPerimeter=0;entryX=1;entryY=0.365;entryDx=0;entryDy=0;entryPerimeter=0;fillColor=#1ba1e2;strokeColor=#006EAF;strokeWidth=3;" edge="1" parent="1" source="yPtQLD9C36bfNlVtRMow-49" target="yPtQLD9C36bfNlVtRMow-8">
          <mxGeometry width="50" height="50" relative="1" as="geometry">
            <mxPoint x="540.4" y="780" as="sourcePoint" />
            <mxPoint x="810" y="480" as="targetPoint" />
            <Array as="points">
              <mxPoint x="590" y="760" />
              <mxPoint x="760" y="520" />
              <mxPoint x="830" y="300" />
            </Array>
          </mxGeometry>
        </mxCell>
      </root>
    </mxGraphModel>
  </diagram>
</mxfile>
